…
library(tidyverse)

# Names for disability vector
dis_codes <- c(seq(200, 280, by = 10), 281, seq(290, 330, by = 10))

# Make dataset
set.seed(200)

df <- tibble(
  disability_1 = as.character(sample(dis_codes, 1000, replace = TRUE)), 
  disability_2 = as.character(sample(dis_codes, 1000, replace = TRUE)))
df

## # A tibble: 1,000 x 2
##    disability_1 disability_2
##    <chr>        <chr>       
##  1 250          210         
##  2 210          230         
##  3 330          330         
##  4 270          220         
##  5 260          220         
##  6 300          200         
##  7 300          250         
##  8 240          290         
##  9 281          290         
## 10 210          300         
## # … with 990 more rows
…
This is the point where things start to feel like magic! We’ll take our new named vector and use mutate to transform the codes in disability_1 into actual disability labels.

df %>% 
  mutate(disability_1 = dis_lookup[disability_1])

## # A tibble: 1,000 x 2
##    disability_1                   disability_2
##    <chr>                          <chr>       
##  1 visual impairment              210         
##  2 intellectual disability        230         
##  3 traumatic brain injury         330         
##  4 orthopedic impairment          220         
##  5 emotional disturbance          220         
##  6 deaf-blindness                 200         
##  7 deaf-blindness                 250         
##  8 speech and language impairment 290         
##  9 established medical disability 290         
## 10 intellectual disability        300         
## # … with 990 more rows
…
## Warning: `funs()` is deprecated as of dplyr 0.8.0.
## Please use a list of either functions or lambdas: 
## 
##   # Simple named list: 
##   list(mean = mean, median = median)
## 
##   # Auto named with `tibble::lst()`: 
##   tibble::lst(mean, median)
## 
##   # Using lambdas
##   list(~ mean(., trim = .2), ~ median(., na.rm = TRUE))
## This warning is displayed once every 8 hours.
## Call `lifecycle::last_warnings()` to see where this warning was generated.

## # A tibble: 1,000 x 2
##    disability_1                   disability_2                
##    <chr>                          <chr>                       
##  1 visual impairment              intellectual disability     
##  2 intellectual disability        deafness                    
##  3 traumatic brain injury         traumatic brain injury      
##  4 orthopedic impairment          hard of hearing             
##  5 emotional disturbance          hard of hearing             
##  6 deaf-blindness                 none                        
##  7 deaf-blindness                 visual impairment           
##  8 speech and language impairment specific learning disability
##  9 established medical disability specific learning disability
## 10 intellectual disability        deaf-blindness              
## # … with 990 more rows
…
3. Collect Them All in A Package

I had so much fun making that work that I started taking notice anytime there were chances to create functions that convert codes to labels. As soon as I had a second function, I built an R package called spedtools to house them so I could just load the package at the top of any CASEMIS analysis I do. Now I don’t need to rebuild the functions over and over again and I can get my data transformed for analysis with some compact and readable code. Here’s what that looks like:

library(spedtools) 

df %>% 
  mutate_at(vars(disability_1:disability_2), funs(convert_dis))

## # A tibble: 1,000 x 2
##    disability_1                   disability_2                
##    <chr>                          <chr>                       
##  1 visual impairment              intellectual disability     
##  2 intellectual disability        deafness                    
##  3 traumatic brain injury         traumatic brain injury      
##  4 orthopedic impairment          hard of hearing             
##  5 emotional disturbance          hard of hearing             
##  6 deaf-blindness                 none                        
##  7 deaf-blindness                 visual impairment           
##  8 speech and language impairment specific learning disability
##  9 established medical disability specific learning disability
## 10 intellectual disability        deaf-blindness              
## # … with 990 more rows
…
