…
Click on the View Detailed Data link

Download the text file by clicking on the Download Data link

Clearer Column Names Helps Readability

Here’s what the math dataset looks like without any changes:

url <- "https://raw.githubusercontent.com/restrellado/data_for_blog/master/Somedistrictmath.txt"

# Show the whole CDS code instead of scientific format
math <- read_tsv(url, col_types = cols(cds = col_character()))
math

## # A tibble: 232 x 26
##    cds   rtype schoolname districtname countyname charter_flag coe_flag
##    <chr> <chr> <chr>      <chr>        <chr>      <lgl>        <lgl>   
##  1 14    D     <NA>       district_1   county_1   NA           NA      
##  2 14    D     <NA>       district_1   county_1   NA           NA      
##  3 14    D     <NA>       district_1   county_1   NA           NA      
##  4 14    D     <NA>       district_1   county_1   NA           NA      
##  5 14    D     <NA>       district_1   county_1   NA           NA      
##  6 14    D     <NA>       district_1   county_1   NA           NA      
##  7 14    D     <NA>       district_1   county_1   NA           NA      
##  8 14    D     <NA>       district_1   county_1   NA           NA      
##  9 14    D     <NA>       district_1   county_1   NA           NA      
## 10 14    D     <NA>       district_1   county_1   NA           NA      
## # … with 222 more rows, and 19 more variables: studentgroup <chr>,
## #   currdenom <dbl>, currstatus <dbl>, priordenom <dbl>, priorstatus <dbl>,
## #   change <dbl>, statuslevel <dbl>, changelevel <dbl>, color <dbl>, box <dbl>,
## #   caa_denom <dbl>, caa_level1_num <dbl>, caa_level1_pct <dbl>,
## #   caa_level2_num <dbl>, caa_level2_pct <dbl>, caa_level3_num <dbl>,
## #   caa_level3_pct <dbl>, ReportingYear <chr>, X26 <lgl>
Notice that the column names aren’t immediately clear about what they’re describing. For example, the sizes of the student subgroups are kept in a column called currdenom. The average distance from score level of three is currstatus.

It’s super important to take the time to review the file layout, which provides definitions for every column name. It’s not the most fun reading, but you’ll find that you can help people answer questions better when you are confident you understand precisely what the numbers mean. Once you have a good understanding of what each column means, you can drop the column names you don’t need for your analysis and rename the ones that you keep. Let’s drop all columns except the school name, subgroup name, size of the subgroup, average distance from three, and the change from last year:

math <- math %>% 
  # Filter on just schools, not whole district counts 
  filter(rtype == "S") %>% 
  select(school = schoolname, 
         subgroup = studentgroup, 
         subgroup_size = currdenom, 
         avg_dfrom3 = currstatus, 
         change)
math

## # A tibble: 215 x 5
##    school    subgroup subgroup_size avg_dfrom3 change
##    <chr>     <chr>            <dbl>      <dbl>  <dbl>
##  1 school_13 AA                   2       NA     NA  
##  2 school_13 ALL                217       57.3    0.7
##  3 school_13 AS                  45       73.8    2.4
##  4 school_13 EL                  44       26.1    8.9
##  5 school_13 ELO                 18       -8     14.5
##  6 school_13 EO                 158       60.6   -3.7
##  7 school_13 FI                   1       NA     NA  
##  8 school_13 HI                  23      -22     -6.3
##  9 school_13 MR                  31       62.5  -17.3
## 10 school_13 RFP                 26       49.7   -2.6
## # … with 205 more rows
…
school: name of the school

subgroup: name of the subgroup

subgroup_size: number of students in the subgroup

avg_dfrom3: average distance from test score level three for each subgroup

change: change in distance from three score compared to last year

There’s one more thing I want to do here. It’s hard to see right away which subgroups I’m looking at because the dataset uses subgroup codes instead of actual names. We want to use our brain power more to ask and answer questions and less to remember what codes mean, so let’s change that. I built a handy tool in my spedtools R package that will quickly rename the codes to actual words.

(math <- math %>% mutate(subgroup = convert_subgroup(subgroup)))

## # A tibble: 215 x 5
##    school    subgroup                   subgroup_size avg_dfrom3 change
##    <chr>     <chr>                              <dbl>      <dbl>  <dbl>
##  1 school_13 Black/African American                 2       NA     NA  
##  2 school_13 All Students                         217       57.3    0.7
##  3 school_13 Asian                                 45       73.8    2.4
##  4 school_13 English Learner                       44       26.1    8.9
##  5 school_13 English Learners Only                 18       -8     14.5
##  6 school_13 English Only                         158       60.6   -3.7
##  7 school_13 Filipino                               1       NA     NA  
##  8 school_13 Hispanic                              23      -22     -6.3
##  9 school_13 Multiple Races/Two or More            31       62.5  -17.3
## 10 school_13 RFEPs Only                            26       49.7   -2.6
## # … with 205 more rows
…
Which schools had the highest increases from last year in each subgroup?

We can keep the conversation going by looking at the top two positive change scores for every subgroup. These are the schools that had the best increases in the distance from three score from last year. Now schools can get a sense of where to start calling if they want to hear about strategies, interventions, or initiatives that their colleagues are using to be successful.

math %>% 
  select(-subgroup_size) %>% 
  # Remove the All Students category so we're just looking at subgroups
  filter(subgroup != "All Students", change > 0) %>%
  group_by(subgroup) %>% 
  filter(min_rank(desc(change)) <= 2) %>% 
  select(subgroup, school, change) %>% 
  arrange(subgroup)

## # A tibble: 21 x 3
## # Groups:   subgroup [11]
##    subgroup               school    change
##    <chr>                  <chr>      <dbl>
##  1 Asian                  school_08   12.4
##  2 Asian                  school_12   11.6
##  3 Black/African American school_12   58.4
##  4 English Learner        school_13    8.9
##  5 English Learner        school_04    3.4
##  6 English Learners Only  school_13   14.5
##  7 English Learners Only  school_04   34.1
##  8 English Only           school_09    9.1
##  9 English Only           school_12    6.3
## 10 Hispanic               school_09   13.1
## # … with 11 more rows
…
